[gd_scene load_steps=2 format=2]

[ext_resource path="res://assets/Prototype/Isometric/crate_E.png" type="Texture" id=1]

[node name="crate_E" type="StaticBody2D"]

[node name="Sprite" type="Sprite" parent="."]
position = Vector2( 0, -190 )
texture = ExtResource( 1 )

[node name="CollisionPolygon2D" type="CollisionPolygon2D" parent="."]
polygon = PoolVector2Array( -63.4371, -16.0183, 0.251221, -47.8625, 61.9493, -0.759628, 0.251221, 31.748, -63.4371, 0.567215 )
